1|1
1|0.706349
1|0.821429
1|0.837302
1|0.785714
1|1
1|0.619048
1|0.849206
1|0.865079
1|0.730159
1|1
1|0.769841
1|1
1|1
1|0.793651
1|0.797619
1|1
1|1
1|0.880952
1|0.972222
1|0.634921
1|0.948413
1|0.801587
1|0.777778
1|0.924603
1|0.84127
1|0.746032
1|0.686508
1|0.801587
1|0.944444
1|1
1|0.706349
1|0.821429
1|0.837302
1|0.785714
1|1
1|0.619048
1|0.849206
1|0.865079
1|0.730159
1|1
1|0.769841
1|1
1|1
1|0.793651
1|0.797619
1|1
1|1
1|0.880952
1|0.972222
1|0.634921
1|0.948413
1|0.801587
1|0.777778
1|0.924603
1|0.84127
1|0.746032
1|0.686508
1|0.801587
1|0.944444
1|1
1|0.706349
1|0.821429
1|0.837302
1|0.785714
1|1
1|0.619048
1|0.849206
1|0.865079
1|0.730159
1|1
1|0.769841
1|1
1|1
1|0.793651
1|0.797619
1|1
1|1
1|0.880952
1|0.972222
1|0.634921
1|0.948413
1|0.801587
1|0.777778
1|0.924603
1|0.84127
1|0.746032
1|0.686508
1|0.801587
1|0.944444
1|1
1|0.706349
1|0.821429
1|0.837302
1|0.785714
1|1
1|0.619048
1|0.849206
1|0.865079
1|0.730159
1|1
1|0.769841
1|1
1|1
1|0.793651
1|0.797619
1|1
1|1
1|0.880952
1|0.972222
1|0.634921
1|0.948413
1|0.801587
1|0.777778
1|0.924603
1|0.84127
1|0.746032
1|0.686508
1|0.801587
1|0.944444
1|1
1|0.706349
1|0.821429
1|0.837302
1|0.785714
1|1
1|0.619048
1|0.849206
1|0.865079
1|0.730159
1|1
1|0.769841
1|1
1|1
1|0.793651
1|0.797619
1|1
1|1
1|0.880952
1|0.972222
1|0.634921
1|0.948413
1|0.801587
1|0.777778
1|0.924603
1|0.84127
1|0.746032
1|0.686508
1|0.801587
1|0.944444
