1|0.644269
1|0.995059
1|0.966403
0.9|0.753953
0.8|0.918972
1|0.602767
1|0.865613
0.9|0.619565
1|0.781621
0.8|0.732213
1|0.653162
1|0.862648
0.8|0.851779
0.8|0.855731
0.9|0.807312
1|0.864625
0.9|0.72332
1|0.906126
1|0.772727
1|0.710474
0.9|0.683794
1|0.880435
1|0.864625
1|0.774704
0.8|0.802372
0.9|0.77668
1|1
1|0.711462
1|0.683794
1|0.747036
1|0.644269
1|0.995059
1|0.966403
0.9|0.753953
0.8|0.918972
1|0.602767
1|0.865613
0.9|0.619565
1|0.781621
0.8|0.732213
1|0.653162
1|0.862648
0.8|0.851779
0.8|0.855731
0.9|0.807312
1|0.864625
0.9|0.72332
1|0.906126
1|0.772727
1|0.710474
0.9|0.683794
1|0.880435
1|0.864625
1|0.774704
0.8|0.802372
0.9|0.77668
1|1
1|0.711462
1|0.683794
1|0.747036
1|0.644269
1|0.995059
1|0.966403
0.9|0.753953
0.8|0.918972
1|0.602767
1|0.865613
0.9|0.619565
1|0.781621
0.8|0.732213
1|0.653162
1|0.862648
0.8|0.851779
0.8|0.855731
0.9|0.807312
1|0.864625
0.9|0.72332
1|0.906126
1|0.772727
1|0.710474
0.9|0.683794
1|0.880435
1|0.864625
1|0.774704
0.8|0.802372
0.9|0.77668
1|1
1|0.711462
1|0.683794
1|0.747036
1|0.644269
1|0.995059
1|0.966403
0.9|0.753953
0.8|0.918972
1|0.602767
1|0.865613
0.9|0.619565
1|0.781621
0.8|0.732213
1|0.653162
1|0.862648
0.8|0.851779
0.8|0.855731
0.9|0.807312
1|0.864625
0.9|0.72332
1|0.906126
1|0.772727
1|0.710474
0.9|0.683794
1|0.880435
1|0.864625
1|0.774704
0.8|0.802372
0.9|0.77668
1|1
1|0.711462
1|0.683794
1|0.747036
1|0.644269
1|0.995059
1|0.966403
0.9|0.753953
0.8|0.918972
1|0.602767
1|0.865613
0.9|0.619565
1|0.781621
0.8|0.732213
1|0.653162
1|0.862648
0.8|0.851779
0.8|0.855731
0.9|0.807312
1|0.864625
0.9|0.72332
1|0.906126
1|0.772727
1|0.710474
0.9|0.683794
1|0.880435
1|0.864625
1|0.774704
0.8|0.802372
0.9|0.77668
1|1
1|0.711462
1|0.683794
1|0.747036
