0.823529|0.68898
1|0.994851
0.862745|0.907312
0.764706|0.729145
0.823529|0.820803
0.666667|0.726056
0.941176|0.869207
0.72549|0.671473
0.843137|0.859938
0.764706|0.792997
0.803922|0.671473
0.784314|0.864058
0.72549|0.869207
0.705882|0.814624
0.803922|0.76622
0.843137|0.727085
0.882353|0.76931
0.901961|0.907312
0.882353|0.671473
0.882353|0.709578
0.803922|0.61792
1|0.900103
0.862745|0.893924
0.901961|0.775489
0.882353|0.69001
0.901961|0.787848
1|1
0.803922|0.713697
0.784314|0.761071
0.901961|0.859938
0.823529|0.68898
1|0.994851
0.862745|0.907312
0.764706|0.729145
0.823529|0.820803
0.666667|0.726056
0.941176|0.869207
0.72549|0.671473
0.843137|0.859938
0.764706|0.792997
0.803922|0.671473
0.784314|0.864058
0.72549|0.869207
0.705882|0.814624
0.803922|0.76622
0.843137|0.727085
0.882353|0.76931
0.901961|0.907312
0.882353|0.671473
0.882353|0.709578
0.803922|0.61792
1|0.900103
0.862745|0.893924
0.901961|0.775489
0.882353|0.69001
0.901961|0.787848
1|1
0.803922|0.713697
0.784314|0.761071
0.901961|0.859938
0.823529|0.68898
1|0.994851
0.862745|0.907312
0.764706|0.729145
0.823529|0.820803
0.666667|0.726056
0.941176|0.869207
0.72549|0.671473
0.843137|0.859938
0.764706|0.792997
0.803922|0.671473
0.784314|0.864058
0.72549|0.869207
0.705882|0.814624
0.803922|0.76622
0.843137|0.727085
0.882353|0.76931
0.901961|0.907312
0.882353|0.671473
0.882353|0.709578
0.803922|0.61792
1|0.900103
0.862745|0.893924
0.901961|0.775489
0.882353|0.69001
0.901961|0.787848
1|1
0.803922|0.713697
0.784314|0.761071
0.901961|0.859938
0.823529|0.68898
1|0.994851
0.862745|0.907312
0.764706|0.729145
0.823529|0.820803
0.666667|0.726056
0.941176|0.869207
0.72549|0.671473
0.843137|0.859938
0.764706|0.792997
0.803922|0.671473
0.784314|0.864058
0.72549|0.869207
0.705882|0.814624
0.803922|0.76622
0.843137|0.727085
0.882353|0.76931
0.901961|0.907312
0.882353|0.671473
0.882353|0.709578
0.803922|0.61792
1|0.900103
0.862745|0.893924
0.901961|0.775489
0.882353|0.69001
0.901961|0.787848
1|1
0.803922|0.713697
0.784314|0.761071
0.901961|0.859938
0.823529|0.68898
1|0.994851
0.862745|0.907312
0.764706|0.729145
0.823529|0.820803
0.666667|0.726056
0.941176|0.869207
0.72549|0.671473
0.843137|0.859938
0.764706|0.792997
0.803922|0.671473
0.784314|0.864058
0.72549|0.869207
0.705882|0.814624
0.803922|0.76622
0.843137|0.727085
0.882353|0.76931
0.901961|0.907312
0.882353|0.671473
0.882353|0.709578
0.803922|0.61792
1|0.900103
0.862745|0.893924
0.901961|0.775489
0.882353|0.69001
0.901961|0.787848
1|1
0.803922|0.713697
0.784314|0.761071
0.901961|0.859938
