1|1
0.96|0.864629
0.96|0.886463
0.88|1
1|1
1|1
0.88|0.829694
0.96|0.951965
0.88|0.868996
0.92|0.943231
1|1
1|1
1|1
1|1
0.88|1
0.92|0.882096
0.96|1
1|1
0.96|0.917031
1|1
1|0.960699
1|1
1|1
0.92|0.834061
1|0.982533
1|0.873362
0.88|0.873362
1|1
0.96|0.951965
1|0.947598
1|1
0.96|0.812227
0.96|0.886463
1|1
1|1
1|1
0.92|0.834061
0.96|0.951965
0.88|0.868996
1|0.943231
1|1
1|1
1|1
1|1
1|1
0.92|0.882096
1|1
1|1
0.92|0.943231
1|1
1|0.960699
1|1
1|1
0.92|0.834061
1|1
1|0.873362
0.88|0.873362
0.92|1
0.96|0.951965
1|0.947598
1|1
0.96|0.864629
0.96|0.886463
0.96|1
0.92|1
1|1
0.88|0.829694
1|0.951965
0.88|0.868996
0.92|0.943231
1|1
1|1
1|1
1|1
1|1
0.92|0.882096
1|1
1|1
0.96|0.943231
1|1
1|0.960699
1|1
1|1
0.92|0.834061
1|1
1|0.882096
0.88|0.873362
1|1
0.96|0.951965
1|0.947598
1|1
0.96|0.864629
0.92|0.886463
1|1
1|1
1|1
0.92|0.829694
1|0.951965
0.88|0.868996
1|0.943231
1|1
1|1
1|1
1|1
0.88|1
0.92|0.882096
1|1
1|1
0.96|0.943231
1|1
1|0.960699
1|1
1|1
0.92|0.834061
1|1
1|0.864629
0.88|0.873362
1|1
0.92|0.951965
1|0.947598
1|1
0.96|0.864629
0.92|0.886463
1|1
0.92|1
1|1
0.92|0.834061
1|0.951965
0.88|0.868996
1|0.943231
1|1
1|1
1|1
1|1
0.88|0.930131
0.92|0.882096
1|1
1|1
0.96|0.943231
1|1
1|0.960699
1|1
1|1
0.84|0.834061
1|1
1|0.864629
0.88|0.873362
1|1
0.96|0.951965
1|0.947598
